{
	"commentStamp" : "",
	"super" : "WAFileLibrary",
	"category" : "CuOOra-UI-Components",
	"classinstvars" : [ ],
	"pools" : [ ],
	"classvars" : [ ],
	"instvars" : [ ],
	"name" : "WACuOOraFiles",
	"type" : "normal"
}